Technical Data Sets by Ruijter et al. (2013) • ruijter
…
head(ds_94_4)
#> # A tibble: 6 × 9
#>   well  replicate dye   target sample_type copies dilution cycle fluor
#>   <fct> <fct>     <fct> <fct>  <fct>        <int>    <dbl> <int> <dbl>
#> 1 A1    1         SYBR  MYCN   ntc              0      Inf     1 5202.
#> 2 A1    1         SYBR  MYCN   ntc              0      Inf     2 5229.
#> 3 A1    1         SYBR  MYCN   ntc              0      Inf     3 5252.
#> 4 A1    1         SYBR  MYCN   ntc              0      Inf     4 5256.
#> 5 A1    1         SYBR  MYCN   ntc              0      Inf     5 5270.
#> 6 A1    1         SYBR  MYCN   ntc              0      Inf     6 5282.

dplyr::count(ds_94_4, well, replicate, sample_type, copies)
#> # A tibble: 384 × 5
#>    well  replicate sample_type copies     n
#>    <fct> <fct>     <fct>        <int> <int>
#>  1 A1    1         ntc              0    45
#>  2 A2    2         ntc              0    45
#>  3 A3    1         std          15000    45
#>  4 A4    1         std            150    45
#>  5 A5    2         std          15000    45
#>  6 A6    2         std            150    45
#>  7 A7    3         std          15000    45
#>  8 A8    3         std            150    45
#>  9 A9    4         std          15000    45
#> 10 A10   4         std            150    45
#> # ℹ 374 more rows
…
Replicates for assessment of precision ds_380

head(ds_380)
#> # A tibble: 6 × 9
#>   well  replicate dye   target sample_type copies dilution cycle fluor
#>   <fct> <fct>     <fct> <fct>  <fct>        <int>    <dbl> <int> <dbl>
#> 1 A1    1         SYBR  MYCN   std         150000        1     1 4340.
#> 2 A1    1         SYBR  MYCN   std         150000        1     2 4365.
#> 3 A1    1         SYBR  MYCN   std         150000        1     3 4381.
#> 4 A1    1         SYBR  MYCN   std         150000        1     4 4386.
#> 5 A1    1         SYBR  MYCN   std         150000        1     5 4398.
#> 6 A1    1         SYBR  MYCN   std         150000        1     6 4400.

dplyr::count(ds_380, well, replicate, sample_type, copies)
#> # A tibble: 384 × 5
#>    well  replicate sample_type copies     n
#>    <fct> <fct>     <fct>        <int> <int>
#>  1 A1    1         std         150000    45
#>  2 A2    2         std         150000    45
#>  3 A3    3         std         150000    45
#>  4 A4    4         std         150000    45
#>  5 A5    5         std         150000    45
#>  6 A6    6         std         150000    45
#>  7 A7    7         std         150000    45
#>  8 A8    8         std         150000    45
#>  9 A9    9         std         150000    45
#> 10 A10   10        std         150000    45
#> # ℹ 374 more rows
…
Competimer primers for PCR efficiency modulation ds_competimer

head(ds_competimer)
#> # A tibble: 6 × 10
#>   well  replicate dye     pct  conc target sample_type dilution cycle fluor
#>   <fct> <fct>     <fct> <dbl> <dbl> <fct>  <fct>          <dbl> <int> <dbl>
#> 1 <NA>  1         SYBR      0    64 AluSx  std                1     1  2.02
#> 2 <NA>  1         SYBR      0    64 AluSx  std                1     2  2.30
#> 3 <NA>  1         SYBR      0    64 AluSx  std                1     3  2.32
#> 4 <NA>  1         SYBR      0    64 AluSx  std                1     4  2.36
#> 5 <NA>  1         SYBR      0    64 AluSx  std                1     5  2.42
#> 6 <NA>  1         SYBR      0    64 AluSx  std                1     6  2.55

dplyr::count(ds_competimer, well, pct, conc, replicate, sample_type)
#> # A tibble: 147 × 6
#>    well    pct   conc replicate sample_type     n
#>    <fct> <dbl>  <dbl> <fct>     <fct>       <int>
#>  1 <NA>      0 0      1         ntc            45
#>  2 <NA>      0 0      2         ntc            45
#>  3 <NA>      0 0      3         ntc            45
#>  4 <NA>      0 0.0625 1         std            45
#>  5 <NA>      0 0.0625 2         std            45
#>  6 <NA>      0 0.0625 3         std            45
#>  7 <NA>      0 0.25   1         std            45
#>  8 <NA>      0 0.25   2         std            45
#>  9 <NA>      0 0.25   3         std            45
#> 10 <NA>      0 1      1         std            45
#> # ℹ 137 more rows
…
